…
# Analyze time of day fraud happens

``` r
fraudulent_data_time <- data_time %>%
  filter(Fraud == 1) %>% 
  select(month, hour, Fraud) %>% 
  group_by(hour) %>%
  summarize(fraud_count = n())

print(fraudulent_data_time)
```

    ## # A tibble: 24 × 2
    ##     hour fraud_count
    ##    <int>       <int>
    ##  1     0        1171
    ##  2     1        1025
    ##  3     2        1008
    ##  4     3        1060
    ##  5     4         959
    ##  6     5         959
    ##  7     6         990
    ##  8     7        1006
    ##  9     8        1041
    ## 10     9         989
    ## # … with 14 more rows
…
# Is there a difference in the time of day when fraudulent transactions occur between debit and credit cards?

``` r
credit_fraudulent_data_time <- data_time %>%
  filter(Fraud == 1, CardType == "Cr") %>% 
  select(month, hour, Fraud, CardType) %>% 
  group_by(hour) %>%
  summarize(fraud_count = n())

print(credit_fraudulent_data_time)
```

    ## # A tibble: 24 × 2
    ##     hour fraud_count
    ##    <int>       <int>
    ##  1     0         144
    ##  2     1          74
    ##  3     2          70
    ##  4     3          66
    ##  5     4          65
    ##  6     5          57
    ##  7     6          59
    ##  8     7          73
    ##  9     8          57
    ## 10     9          55
    ## # … with 14 more rows
…
